create dummies — create_dummies • framecleaner
…
    Value

    data frame

    Details

    reference the fastDummies package for documentation on the original function.

    Examples

iris %>%
create_dummies(Species, append_col_name = FALSE) %>%
  tibble::as_tibble()

#> # A tibble: 150 x 7
#>    Sepal.Length Sepal.Width Petal.Length Petal.Width setosa versicolor virginica
#>           <dbl>       <dbl>        <dbl>       <dbl>  <int>      <int>     <int>
#>  1          5.1         3.5          1.4         0.2      1          0         0
#>  2          4.9         3            1.4         0.2      1          0         0
#>  3          4.7         3.2          1.3         0.2      1          0         0
#>  4          4.6         3.1          1.5         0.2      1          0         0
#>  5          5           3.6          1.4         0.2      1          0         0
#>  6          5.4         3.9          1.7         0.4      1          0         0
#>  7          4.6         3.4          1.4         0.3      1          0         0
#>  8          5           3.4          1.5         0.2      1          0         0
#>  9          4.4         2.9          1.4         0.2      1          0         0
#> 10          4.9         3.1          1.5         0.1      1          0         0
#> # … with 140 more rows
…
